DataProg Project
…
[1] 1173.188

Submission dates frequency

#Convert the Submission Date column to Date format using lubridate
covidData <- covidData |>
  mutate(`Submission Date` = dmy(`Submission Date`))

subDates <- covidData |>
  count(`Submission Date`) |>
  arrange(desc(n))

print(subDates)

# A tibble: 98 × 2
   `Submission Date`     n
   <date>            <int>
 1 2020-09-04        39516
 2 2020-04-23         1848
 3 2020-05-08         1571
 4 2020-09-03         1284
 5 2020-05-11         1266
 6 2020-04-13         1249
 7 2020-08-04         1160
 8 2020-08-06         1140
 9 2020-04-24         1127
10 2020-05-26         1092
# ℹ 88 more rows
…
